;HEADER
;Start_gcode
G21                     ; Set to metric [change to G20 if you want Imperial]
G90                     ; Force coordinates to be absolute relative to the origin
G28                     ; Home X/Y/Z axis
M117 Printing...
;ENDHEADER
;Layer #

G28
G0 Z30 F3000
G0 X467.70 Y246.81 Z30.00 F3000
G1 X467.70 Y246.81 Z10.00 F3000
G1 X466.56 Y249.22 Z10.00 F3000
G1 X465.68 Y252.01 Z10.00 F3000
G1 X464.53 Y258.07 Z10.00 F3000
G1 X464.59 Y260.21 Z10.00 F3000
G1 X465.11 Y263.37 Z10.00 F3000
G1 X467.05 Y271.30 Z10.00 F3000
G1 X469.32 Y278.96 Z10.00 F3000
G1 X470.88 Y283.46 Z10.00 F3000
G1 X472.54 Y288.08 Z10.00 F3000
G1 X473.76 Y292.69 Z10.00 F3000
G1 X479.16 Y319.32 Z10.00 F3000
G1 X480.25 Y325.88 Z10.00 F3000
G1 X480.40 Y330.79 Z10.00 F3000
G1 X480.16 Y334.40 Z10.00 F3000
G1 X479.26 Y341.67 Z10.00 F3000
G1 X478.93 Y343.69 Z10.00 F3000
G1 X478.35 Y345.46 Z10.00 F3000
G1 X477.55 Y347.01 Z10.00 F3000
G1 X476.55 Y348.40 Z10.00 F3000
G1 X474.12 Y350.80 Z10.00 F3000
G1 X471.31 Y352.98 Z10.00 F3000
G1 X468.47 Y354.72 Z10.00 F3000
G1 X465.54 Y355.89 Z10.00 F3000
G1 X462.64 Y356.55 Z10.00 F3000
G1 X459.91 Y356.75 Z10.00 F3000
G1 X452.55 Y357.08 Z10.00 F3000
G1 X447.98 Y356.87 Z10.00 F3000
G1 X445.69 Y356.50 Z10.00 F3000
G1 X443.46 Y355.89 Z10.00 F3000
G1 X441.52 Y355.05 Z10.00 F3000
G1 X439.97 Y354.10 Z10.00 F3000
G1 X438.77 Y353.05 Z10.00 F3000
G1 X437.84 Y351.95 Z10.00 F3000
G1 X436.57 Y349.76 Z10.00 F3000
G1 X435.67 Y347.81 Z10.00 F3000
G1 X434.65 Y345.11 Z10.00 F3000
G1 X433.51 Y341.35 Z10.00 F3000
G1 X432.21 Y335.98 Z10.00 F3000
G1 X432.84 Y335.42 Z10.00 F3000
G1 X434.54 Y334.47 Z10.00 F3000
G1 X440.04 Y331.97 Z10.00 F3000
G1 X446.45 Y329.52 Z10.00 F3000
G1 X449.30 Y328.65 Z10.00 F3000
G1 X451.54 Y328.18 Z10.00 F3000
G1 X454.79 Y327.93 Z10.00 F3000
G1 X457.42 Y328.08 Z10.00 F3000
G1 X459.84 Y328.71 Z10.00 F3000
G1 X462.44 Y329.91 Z10.00 F3000
G1 X463.65 Y330.71 Z10.00 F3000
G1 X464.49 Y331.57 Z10.00 F3000
G1 X465.00 Y332.49 Z10.00 F3000
G1 X465.22 Y333.45 Z10.00 F3000
G1 X465.17 Y334.44 Z10.00 F3000
G1 X464.89 Y335.45 Z10.00 F3000
G1 X463.79 Y337.45 Z10.00 F3000
G1 X462.81 Y338.35 Z10.00 F3000
G1 X461.39 Y338.98 Z10.00 F3000
G1 X459.65 Y339.38 Z10.00 F3000
G1 X457.69 Y339.58 Z10.00 F3000
G1 X453.53 Y339.52 Z10.00 F3000
G1 X449.78 Y339.04 Z10.00 F3000
G1 X448.30 Y338.66 Z10.00 F3000
G1 X447.04 Y338.10 Z10.00 F3000
G1 X444.95 Y336.57 Z10.00 F3000
G1 X441.15 Y332.51 Z10.00 F3000
G1 X438.40 Y329.52 Z10.00 F3000
G1 X436.09 Y326.31 Z10.00 F3000
G1 X435.37 Y325.02 Z10.00 F3000
G1 X434.93 Y323.57 Z10.00 F3000
G1 X434.73 Y321.98 Z10.00 F3000
G1 X434.73 Y320.29 Z10.00 F3000
G1 X435.17 Y316.73 Z10.00 F3000
G1 X435.96 Y313.18 Z10.00 F3000
G1 X438.38 Y305.52 Z10.00 F3000
G1 X438.85 Y303.37 Z10.00 F3000
G1 X439.19 Y301.29 Z10.00 F3000
G1 X439.21 Y299.48 Z10.00 F3000
G1 X438.92 Y298.74 Z10.00 F3000
G1 X438.34 Y298.14 Z10.00 F3000
G1 X437.39 Y297.70 Z10.00 F3000
G1 X436.00 Y297.45 Z10.00 F3000
G1 X434.69 Y297.46 Z10.00 F3000
G1 X433.72 Y297.71 Z10.00 F3000
G1 X431.63 Y299.35 Z10.00 F3000
G1 X431.13 Y299.48 Z10.00 F3000
G1 X430.48 Y299.33 Z10.00 F3000
G1 X427.41 Y297.20 Z10.00 F3000
G1 X426.45 Y296.76 Z10.00 F3000
G1 X425.33 Y296.53 Z10.00 F3000
G1 X423.99 Y296.59 Z10.00 F3000
G1 X422.40 Y297.02 Z10.00 F3000
G1 X419.66 Y298.32 Z10.00 F3000
G1 X416.88 Y300.06 Z10.00 F3000
G1 X416.36 Y300.10 Z10.00 F3000
G1 X415.76 Y299.91 Z10.00 F3000
G1 X414.67 Y299.18 Z10.00 F3000
G1 X412.59 Y297.02 Z10.00 F3000
G1 X412.16 Y296.90 Z10.00 F3000
G1 X411.63 Y297.01 Z10.00 F3000
G1 X410.46 Y297.80 Z10.00 F3000
G1 X409.47 Y299.12 Z10.00 F3000
G1 X409.18 Y299.91 Z10.00 F3000
G1 X409.09 Y300.73 Z10.00 F3000
G1 X409.31 Y303.51 Z10.00 F3000
G1 X409.74 Y305.26 Z10.00 F3000
G1 X410.57 Y307.41 Z10.00 F3000
G1 X413.24 Y313.58 Z10.00 F3000
G1 X415.47 Y319.53 Z10.00 F3000
G1 X415.57 Y320.53 Z10.00 F3000
G1 X415.26 Y321.39 Z10.00 F3000
G1 X414.64 Y322.13 Z10.00 F3000
G1 X413.78 Y322.77 Z10.00 F3000
G1 X409.70 Y324.72 Z10.00 F3000
G1 X408.55 Y325.07 Z10.00 F3000
G1 X406.91 Y325.26 Z10.00 F3000
G1 X402.74 Y325.33 Z10.00 F3000
G1 X394.70 Y325.06 Z10.00 F3000
G1 X391.51 Y325.39 Z10.00 F3000
G1 X387.99 Y326.19 Z10.00 F3000
G1 X384.80 Y327.21 Z10.00 F3000
G1 X382.58 Y328.18 Z10.00 F3000
G1 X382.12 Y328.69 Z10.00 F3000
G1 X382.23 Y329.33 Z10.00 F3000
G1 X382.83 Y330.08 Z10.00 F3000
G1 X383.88 Y330.89 Z10.00 F3000
G1 X387.04 Y332.61 Z10.00 F3000
G1 X391.24 Y334.24 Z10.00 F3000
G1 X393.43 Y334.71 Z10.00 F3000
G1 X395.52 Y334.68 Z10.00 F3000
G1 X397.53 Y334.28 Z10.00 F3000
G1 X403.65 Y332.09 Z10.00 F3000
G1 X405.87 Y331.45 Z10.00 F3000
G1 X408.26 Y331.07 Z10.00 F3000
G1 X412.43 Y330.72 Z10.00 F3000
G1 X415.26 Y330.67 Z10.00 F3000
G1 X417.11 Y331.11 Z10.00 F3000
G1 X417.78 Y331.57 Z10.00 F3000
G1 X418.36 Y332.22 Z10.00 F3000
G1 X418.73 Y333.20 Z10.00 F3000
G1 X418.77 Y334.57 Z10.00 F3000
G1 X418.51 Y336.28 Z10.00 F3000
G1 X417.96 Y338.25 Z10.00 F3000
G1 X416.13 Y342.73 Z10.00 F3000
G1 X413.45 Y347.52 Z10.00 F3000
G1 X411.54 Y349.78 Z10.00 F3000
G1 X408.97 Y351.78 Z10.00 F3000
G1 X405.94 Y353.52 Z10.00 F3000
G1 X402.67 Y354.97 Z10.00 F3000
G1 X399.36 Y356.13 Z10.00 F3000
G1 X396.21 Y356.96 Z10.00 F3000
G1 X393.43 Y357.46 Z10.00 F3000
G1 X391.24 Y357.62 Z10.00 F3000
G1 X389.16 Y357.22 Z10.00 F3000
G1 X386.71 Y356.20 Z10.00 F3000
G1 X384.00 Y354.68 Z10.00 F3000
G1 X381.16 Y352.80 Z10.00 F3000
G1 X375.60 Y348.57 Z10.00 F3000
G1 X371.04 Y344.63 Z10.00 F3000
G1 X370.22 Y343.63 Z10.00 F3000
G1 X369.62 Y342.37 Z10.00 F3000
G1 X368.96 Y339.23 Z10.00 F3000
G1 X368.85 Y335.57 Z10.00 F3000
G1 X369.10 Y331.75 Z10.00 F3000
G1 X369.85 Y325.00 Z10.00 F3000
G1 X369.95 Y322.79 Z10.00 F3000
G1 X369.84 Y322.14 Z10.00 F3000
G1 X369.59 Y321.84 Z10.00 F3000
G1 X368.80 Y321.85 Z10.00 F3000
G1 X363.54 Y324.15 Z10.00 F3000
G1 X361.92 Y324.55 Z10.00 F3000
G1 X360.27 Y324.60 Z10.00 F3000
G1 X358.63 Y324.14 Z10.00 F3000
G1 X357.94 Y323.44 Z10.00 F3000
G1 X357.50 Y322.14 Z10.00 F3000
G1 X357.27 Y320.34 Z10.00 F3000
G1 X357.23 Y318.10 Z10.00 F3000
G1 X357.62 Y312.67 Z10.00 F3000
G1 X358.48 Y306.51 Z10.00 F3000
G1 X360.82 Y294.64 Z10.00 F3000
G1 X362.67 Y287.79 Z10.00 F3000
G1 X363.99 Y285.26 Z10.00 F3000
G1 X364.86 Y284.12 Z10.00 F3000
G1 X365.88 Y283.13 Z10.00 F3000
G1 X367.08 Y282.35 Z10.00 F3000
G1 X368.47 Y281.82 Z10.00 F3000
G1 X370.07 Y281.60 Z10.00 F3000
G1 X371.90 Y281.73 Z10.00 F3000
G1 X375.98 Y282.88 Z10.00 F3000
G1 X376.41 Y282.82 Z10.00 F3000
G1 X376.89 Y282.46 Z10.00 F3000
G1 X378.54 Y280.57 Z10.00 F3000
G1 X391.79 Y261.75 Z10.00 F3000
G1 X396.30 Y255.62 Z10.00 F3000
G1 X400.59 Y250.22 Z10.00 F3000
G1 X404.31 Y246.20 Z10.00 F3000
G1 X405.85 Y244.92 Z10.00 F3000
G1 X407.11 Y244.22 Z10.00 F3000
G1 X409.89 Y243.54 Z10.00 F3000
G1 X413.56 Y243.01 Z10.00 F3000
G1 X422.24 Y242.32 Z10.00 F3000
G1 X435.38 Y241.91 Z10.00 F3000
G1 X436.18 Y242.10 Z10.00 F3000
G1 X437.30 Y242.67 Z10.00 F3000
G1 X440.33 Y244.73 Z10.00 F3000
G1 X444.06 Y247.70 Z10.00 F3000
G1 X448.07 Y251.20 Z10.00 F3000
G1 X455.32 Y258.21 Z10.00 F3000
G1 X457.72 Y260.96 Z10.00 F3000
G1 X458.76 Y262.68 Z10.00 F3000
G1 X458.53 Y263.92 Z10.00 F3000
G1 X457.57 Y265.39 Z10.00 F3000
G1 X456.06 Y266.98 Z10.00 F3000
G1 X454.22 Y268.56 Z10.00 F3000
G1 X450.35 Y271.24 Z10.00 F3000
G1 X448.73 Y272.11 Z10.00 F3000
G1 X447.58 Y272.49 Z10.00 F3000
G1 X446.14 Y272.34 Z10.00 F3000
G1 X436.86 Y269.75 Z10.00 F3000
G1 X429.31 Y267.54 Z10.00 F3000
G1 X423.26 Y266.15 Z10.00 F3000
G1 X419.07 Y265.63 Z10.00 F3000
G1 X417.27 Y265.63 Z10.00 F3000
G1 X415.69 Y265.93 Z10.00 F3000
G1 X414.35 Y266.64 Z10.00 F3000
G1 X413.28 Y267.85 Z10.00 F3000
G1 X412.49 Y269.67 Z10.00 F3000
G1 X412.01 Y272.21 Z10.00 F3000
G1 X412.04 Y272.91 Z10.00 F3000
G1 X412.29 Y273.55 Z10.00 F3000
G1 X413.37 Y274.67 Z10.00 F3000
G1 X415.14 Y275.60 Z10.00 F3000
G1 X417.48 Y276.36 Z10.00 F3000
G1 X423.39 Y277.45 Z10.00 F3000
G1 X430.19 Y278.16 Z10.00 F3000
G1 X442.69 Y279.14 Z10.00 F3000
G1 X446.52 Y279.82 Z10.00 F3000
G1 X447.43 Y280.28 Z10.00 F3000
G1 X447.58 Y280.55 Z10.00 F3000
G1 X447.50 Y280.86 Z10.00 F3000
G1 X446.20 Y282.13 Z10.00 F3000
G1 X443.96 Y283.33 Z10.00 F3000
G1 X441.02 Y284.45 Z10.00 F3000
G1 X437.58 Y285.48 Z10.00 F3000
G1 X430.18 Y287.19 Z10.00 F3000
G1 X423.55 Y288.37 Z10.00 F3000
G1 X420.95 Y288.48 Z10.00 F3000
G1 X418.71 Y288.04 Z10.00 F3000
G1 X416.77 Y287.17 Z10.00 F3000
G1 X415.08 Y285.98 Z10.00 F3000
G1 X409.41 Y280.57 Z10.00 F3000
G1 X400.11 Y274.41 Z10.00 F3000
G1 X394.64 Y270.55 Z10.00 F3000
G1 X392.28 Y268.61 Z10.00 F3000
G1 X390.37 Y266.72 Z10.00 F3000
G1 X388.43 Y264.22 Z10.00 F3000
G1 X386.01 Y260.62 Z10.00 F3000
G1 X380.47 Y251.56 Z10.00 F3000
G1 X375.34 Y242.36 Z10.00 F3000
G1 X372.19 Y235.85 Z10.00 F3000
G1 X370.88 Y233.27 Z10.00 F3000
G1 X368.66 Y229.95 Z10.00 F3000
G1 X365.71 Y226.11 Z10.00 F3000
G1 X362.18 Y222.02 Z10.00 F3000
G1 X358.24 Y217.91 Z10.00 F3000
G1 X354.05 Y214.02 Z10.00 F3000
G1 X349.77 Y210.62 Z10.00 F3000
G1 X345.57 Y207.93 Z10.00 F3000
G1 X340.56 Y205.62 Z10.00 F3000
G1 X334.99 Y203.80 Z10.00 F3000
G1 X328.96 Y202.43 Z10.00 F3000
G1 X322.55 Y201.46 Z10.00 F3000
G1 X315.85 Y200.86 Z10.00 F3000
G1 X308.96 Y200.59 Z10.00 F3000
G1 X301.96 Y200.61 Z10.00 F3000
G1 X294.94 Y200.87 Z10.00 F3000
G1 X281.21 Y201.97 Z10.00 F3000
G1 X268.50 Y203.58 Z10.00 F3000
G1 X257.51 Y205.36 Z10.00 F3000
G1 X248.98 Y206.99 Z10.00 F3000
G1 X245.67 Y207.94 Z10.00 F3000
G1 X242.80 Y209.30 Z10.00 F3000
G1 X240.32 Y211.02 Z10.00 F3000
G1 X238.21 Y213.06 Z10.00 F3000
G1 X236.44 Y215.36 Z10.00 F3000
G1 X234.97 Y217.87 Z10.00 F3000
G1 X233.78 Y220.55 Z10.00 F3000
G1 X232.82 Y223.35 Z10.00 F3000
G1 X231.50 Y229.12 Z10.00 F3000
G1 X230.75 Y234.78 Z10.00 F3000
G1 X229.93 Y244.22 Z10.00 F3000
G1 X228.44 Y254.77 Z10.00 F3000
G1 X221.57 Y297.89 Z10.00 F3000
G1 X221.00 Y303.47 Z10.00 F3000
G1 X220.85 Y309.39 Z10.00 F3000
G1 X221.04 Y315.41 Z10.00 F3000
G1 X221.48 Y321.29 Z10.00 F3000
G1 X222.72 Y331.66 Z10.00 F3000
G1 X223.87 Y338.57 Z10.00 F3000
G1 X224.37 Y339.82 Z10.00 F3000
G1 X225.37 Y341.26 Z10.00 F3000
G1 X228.61 Y344.57 Z10.00 F3000
G1 X233.07 Y348.24 Z10.00 F3000
G1 X238.19 Y351.95 Z10.00 F3000
G1 X243.44 Y355.44 Z10.00 F3000
G1 X252.12 Y360.58 Z10.00 F3000
G1 X254.46 Y361.66 Z10.00 F3000
G1 X255.26 Y361.75 Z10.00 F3000
G1 X256.23 Y361.62 Z10.00 F3000
G1 X258.60 Y360.74 Z10.00 F3000
G1 X261.39 Y359.21 Z10.00 F3000
G1 X264.42 Y357.18 Z10.00 F3000
G1 X267.50 Y354.82 Z10.00 F3000
G1 X273.09 Y349.80 Z10.00 F3000
G1 X275.24 Y347.48 Z10.00 F3000
G1 X277.15 Y344.87 Z10.00 F3000
G1 X283.53 Y334.35 Z10.00 F3000
G1 X285.76 Y330.98 Z10.00 F3000
G1 X287.98 Y328.19 Z10.00 F3000
G1 X290.16 Y326.29 Z10.00 F3000
G1 X291.22 Y325.77 Z10.00 F3000
G1 X292.26 Y325.59 Z10.00 F3000
G1 X294.00 Y325.85 Z10.00 F3000
G1 X295.17 Y326.56 Z10.00 F3000
G1 X295.90 Y327.58 Z10.00 F3000
G1 X296.30 Y328.80 Z10.00 F3000
G1 X296.88 Y333.09 Z10.00 F3000
G1 X297.36 Y333.56 Z10.00 F3000
G1 X298.10 Y333.91 Z10.00 F3000
G1 X302.48 Y335.24 Z10.00 F3000
G1 X303.62 Y335.80 Z10.00 F3000
G1 X304.67 Y336.55 Z10.00 F3000
G1 X305.48 Y337.57 Z10.00 F3000
G1 X305.99 Y338.83 Z10.00 F3000
G1 X306.33 Y341.81 Z10.00 F3000
G1 X305.82 Y347.48 Z10.00 F3000
G1 X305.60 Y348.39 Z10.00 F3000
G1 X305.18 Y349.04 Z10.00 F3000
G1 X304.60 Y349.47 Z10.00 F3000
G1 X303.91 Y349.72 Z10.00 F3000
G1 X300.92 Y349.83 Z10.00 F3000
G1 X299.98 Y350.06 Z10.00 F3000
G1 X295.00 Y352.71 Z10.00 F3000
G1 X289.09 Y356.46 Z10.00 F3000
G1 X283.28 Y360.68 Z10.00 F3000
G1 X279.47 Y363.81 Z10.00 F3000
G1 X276.39 Y366.85 Z10.00 F3000
G1 X275.32 Y368.40 Z10.00 F3000
G1 X274.47 Y370.20 Z10.00 F3000
G1 X273.81 Y372.23 Z10.00 F3000
G1 X273.32 Y374.42 Z10.00 F3000
G1 X272.78 Y379.19 Z10.00 F3000
G1 X272.64 Y384.16 Z10.00 F3000
G1 X272.93 Y386.73 Z10.00 F3000
G1 X273.71 Y389.41 Z10.00 F3000
G1 X274.86 Y392.12 Z10.00 F3000
G1 X276.25 Y394.77 Z10.00 F3000
G1 X281.58 Y403.21 Z10.00 F3000
G1 X283.78 Y406.15 Z10.00 F3000
G1 X286.63 Y408.98 Z10.00 F3000
G1 X289.70 Y411.16 Z10.00 F3000
G1 X291.18 Y411.84 Z10.00 F3000
G1 X292.55 Y412.15 Z10.00 F3000
G1 X293.11 Y412.06 Z10.00 F3000
G1 X293.52 Y411.71 Z10.00 F3000
G1 X293.91 Y410.31 Z10.00 F3000
G1 X293.84 Y408.19 Z10.00 F3000
G1 X293.45 Y405.59 Z10.00 F3000
G1 X291.11 Y395.13 Z10.00 F3000
G1 X290.41 Y393.40 Z10.00 F3000
G1 X289.08 Y391.84 Z10.00 F3000
G1 X281.25 Y385.92 Z10.00 F3000
G1 X279.58 Y384.16 Z10.00 F3000
G1 X278.41 Y382.14 Z10.00 F3000
G1 X277.84 Y380.20 Z10.00 F3000
G1 X277.80 Y378.68 Z10.00 F3000
G1 X278.19 Y377.52 Z10.00 F3000
G1 X278.92 Y376.70 Z10.00 F3000
G1 X279.89 Y376.16 Z10.00 F3000
G1 X281.01 Y375.85 Z10.00 F3000
G1 X283.32 Y375.80 Z10.00 F3000
G1 X284.53 Y376.37 Z10.00 F3000
G1 X285.97 Y377.73 Z10.00 F3000
G1 X289.20 Y381.93 Z10.00 F3000
G1 X294.86 Y390.22 Z10.00 F3000
G1 X295.65 Y391.40 Z10.00 F3000
G1 X296.84 Y394.70 Z10.00 F3000
G1 X297.17 Y394.81 Z10.00 F3000
G1 X298.61 Y393.69 Z10.00 F3000
G1 X300.78 Y391.05 Z10.00 F3000
G1 X305.35 Y384.15 Z10.00 F3000
G1 X307.84 Y380.70 Z10.00 F3000
G1 X309.34 Y378.28 Z10.00 F3000
G1 X311.17 Y374.47 Z10.00 F3000
G1 X315.38 Y363.96 Z10.00 F3000
G1 X319.65 Y351.73 Z10.00 F3000
G1 X323.14 Y340.30 Z10.00 F3000
G1 X324.21 Y335.47 Z10.00 F3000
G1 X324.69 Y331.13 Z10.00 F3000
G1 X324.67 Y327.25 Z10.00 F3000
G1 X324.28 Y323.78 Z10.00 F3000
G1 X323.61 Y320.72 Z10.00 F3000
G1 X322.78 Y318.01 Z10.00 F3000
G1 X321.05 Y313.54 Z10.00 F3000
G1 X319.66 Y311.27 Z10.00 F3000
G1 X317.37 Y308.65 Z10.00 F3000
G1 X314.71 Y306.27 Z10.00 F3000
G1 X312.22 Y304.73 Z10.00 F3000
G1 X309.06 Y303.91 Z10.00 F3000
G1 X305.02 Y303.30 Z10.00 F3000
G1 X300.05 Y302.79 Z10.00 F3000
G1 X300.41 Y306.11 Z10.00 F3000
G1 X301.51 Y309.61 Z10.00 F3000
G1 X302.48 Y311.63 Z10.00 F3000
G1 X303.80 Y313.76 Z10.00 F3000
G1 X306.58 Y317.83 Z10.00 F3000
G1 X308.71 Y318.66 Z10.00 F3000
G1 X310.68 Y319.73 Z10.00 F3000
G1 X311.96 Y320.90 Z10.00 F3000
G1 X312.69 Y322.40 Z10.00 F3000
G1 X313.04 Y324.43 Z10.00 F3000
G1 X313.12 Y326.33 Z10.00 F3000
G1 X313.47 Y327.68 Z10.00 F3000
G1 X314.90 Y329.14 Z10.00 F3000
G1 X318.23 Y331.36 Z10.00 F3000
G1 X321.92 Y333.45 Z10.00 F3000
G1 X323.25 Y333.98 Z10.00 F3000
G1 X324.36 Y334.21 Z10.00 F3000
G1 X325.34 Y334.15 Z10.00 F3000
G1 X326.27 Y333.83 Z10.00 F3000
G1 X328.33 Y332.51 Z10.00 F3000
G1 X328.91 Y331.79 Z10.00 F3000
G1 X329.46 Y330.55 Z10.00 F3000
G1 X330.43 Y326.73 Z10.00 F3000
G1 X331.19 Y321.59 Z10.00 F3000
G1 X331.68 Y315.67 Z10.00 F3000
G1 X331.87 Y309.49 Z10.00 F3000
G1 X331.70 Y303.58 Z10.00 F3000
G1 X331.11 Y298.48 Z10.00 F3000
G1 X330.65 Y296.40 Z10.00 F3000
G1 X330.06 Y294.71 Z10.00 F3000
G1 X329.24 Y293.31 Z10.00 F3000
G1 X328.11 Y292.04 Z10.00 F3000
G1 X326.70 Y290.88 Z10.00 F3000
G1 X325.06 Y289.82 Z10.00 F3000
G1 X321.22 Y288.02 Z10.00 F3000
G1 X316.90 Y286.56 Z10.00 F3000
G1 X312.40 Y285.40 Z10.00 F3000
G1 X300.92 Y283.17 Z10.00 F3000
G1 X296.92 Y282.83 Z10.00 F3000
G1 X290.81 Y282.85 Z10.00 F3000
G1 X283.35 Y283.21 Z10.00 F3000
G1 X275.27 Y283.86 Z10.00 F3000
G1 X267.31 Y284.76 Z10.00 F3000
G1 X260.22 Y285.89 Z10.00 F3000
G1 X254.73 Y287.20 Z10.00 F3000
G1 X252.81 Y287.91 Z10.00 F3000
G1 X251.58 Y288.65 Z10.00 F3000
G1 X251.09 Y289.38 Z10.00 F3000
G1 X251.32 Y290.06 Z10.00 F3000
G1 X252.16 Y290.68 Z10.00 F3000
G1 X253.51 Y291.27 Z10.00 F3000
G1 X257.43 Y292.35 Z10.00 F3000
G1 X272.11 Y295.31 Z10.00 F3000
G1 X275.52 Y296.38 Z10.00 F3000
G1 X276.54 Y296.97 Z10.00 F3000
G1 X276.97 Y297.59 Z10.00 F3000
G1 X276.73 Y298.17 Z10.00 F3000
G1 X275.84 Y298.60 Z10.00 F3000
G1 X272.45 Y299.09 Z10.00 F3000
G1 X267.47 Y299.19 Z10.00 F3000
G1 X261.57 Y299.00 Z10.00 F3000
G1 X242.05 Y297.60 Z10.00 F3000
G1 X240.85 Y297.73 Z10.00 F3000
G1 X239.14 Y298.23 Z10.00 F3000
G1 X234.45 Y300.15 Z10.00 F3000
G1 X228.59 Y303.09 Z10.00 F3000
G1 X222.14 Y306.76 Z10.00 F3000
G1 X215.69 Y310.89 Z10.00 F3000
G1 X209.83 Y315.21 Z10.00 F3000
G1 X207.31 Y317.35 Z10.00 F3000
G1 X205.15 Y319.43 Z10.00 F3000
G1 X203.43 Y321.42 Z10.00 F3000
G1 X202.23 Y323.28 Z10.00 F3000
G1 X201.66 Y325.18 Z10.00 F3000
G1 X201.71 Y327.28 Z10.00 F3000
G1 X202.33 Y329.54 Z10.00 F3000
G1 X203.43 Y331.92 Z10.00 F3000
G1 X204.94 Y334.39 Z10.00 F3000
G1 X206.77 Y336.91 Z10.00 F3000
G1 X211.13 Y341.91 Z10.00 F3000
G1 X215.88 Y346.62 Z10.00 F3000
G1 X230.86 Y359.76 Z10.00 F3000
G1 X235.13 Y363.10 Z10.00 F3000
G1 X241.97 Y368.83 Z10.00 F3000
G1 X248.98 Y375.22 Z10.00 F3000
G1 X252.53 Y378.71 Z10.00 F3000
G1 X256.84 Y383.69 Z10.00 F3000
G1 X258.94 Y386.60 Z10.00 F3000
G1 X260.83 Y389.70 Z10.00 F3000
G1 X262.36 Y392.95 Z10.00 F3000
G1 X263.41 Y396.28 Z10.00 F3000
G1 X263.59 Y397.90 Z10.00 F3000
G1 X263.39 Y399.41 Z10.00 F3000
G1 X262.86 Y400.80 Z10.00 F3000
G1 X262.04 Y402.09 Z10.00 F3000
G1 X260.97 Y403.26 Z10.00 F3000
G1 X259.68 Y404.32 Z10.00 F3000
G1 X256.63 Y406.13 Z10.00 F3000
G1 X253.19 Y407.52 Z10.00 F3000
G1 X249.69 Y408.50 Z10.00 F3000
G1 X246.45 Y409.08 Z10.00 F3000
G1 X243.78 Y409.27 Z10.00 F3000
G1 X241.49 Y408.93 Z10.00 F3000
G1 X239.20 Y408.05 Z10.00 F3000
G1 X237.01 Y406.80 Z10.00 F3000
G1 X235.02 Y405.37 Z10.00 F3000
G1 X230.80 Y401.48 Z10.00 F3000
G1 X224.72 Y394.92 Z10.00 F3000
G1 X210.75 Y380.58 Z10.00 F3000
G1 X202.79 Y372.99 Z10.00 F3000
G1 X195.25 Y366.45 Z10.00 F3000
G1 X191.89 Y363.88 Z10.00 F3000
G1 X188.94 Y361.95 Z10.00 F3000
G1 X186.48 Y360.78 Z10.00 F3000
G1 X185.48 Y360.52 Z10.00 F3000
G1 X184.63 Y360.50 Z10.00 F3000
G1 X183.83 Y360.75 Z10.00 F3000
G1 X182.94 Y361.29 Z10.00 F3000
G1 X180.96 Y363.16 Z10.00 F3000
G1 X178.81 Y365.97 Z10.00 F3000
G1 X176.57 Y369.57 Z10.00 F3000
G1 X174.36 Y373.83 Z10.00 F3000
G1 X172.28 Y378.61 Z10.00 F3000
G1 X170.43 Y383.77 Z10.00 F3000
G1 X168.91 Y389.16 Z10.00 F3000
G1 X167.83 Y394.65 Z10.00 F3000
G1 X167.30 Y400.09 Z10.00 F3000
G1 X167.40 Y405.35 Z10.00 F3000
G1 X167.72 Y407.87 Z10.00 F3000
G1 X168.25 Y410.29 Z10.00 F3000
G1 X168.99 Y412.59 Z10.00 F3000
G1 X169.95 Y414.76 Z10.00 F3000
G1 X171.15 Y416.78 Z10.00 F3000
G1 X172.60 Y418.63 Z10.00 F3000
G1 X174.31 Y420.29 Z10.00 F3000
G1 X176.30 Y421.75 Z10.00 F3000
G1 X178.59 Y422.99 Z10.00 F3000
G1 X181.17 Y423.98 Z10.00 F3000
G1 X225.76 Y439.44 Z10.00 F3000
G1 X242.42 Y444.78 Z10.00 F3000
G1 X260.52 Y450.15 Z10.00 F3000
G1 X279.69 Y455.26 Z10.00 F3000
G1 X299.54 Y459.85 Z10.00 F3000
G1 X309.60 Y461.85 Z10.00 F3000
G1 X319.70 Y463.62 Z10.00 F3000
G1 X329.77 Y465.11 Z10.00 F3000
G1 X339.78 Y466.29 Z10.00 F3000
G1 X349.68 Y467.13 Z10.00 F3000
G1 X359.42 Y467.59 Z10.00 F3000
G1 X368.95 Y467.63 Z10.00 F3000
G1 X378.22 Y467.23 Z10.00 F3000
G1 X387.20 Y466.34 Z10.00 F3000
G1 X395.82 Y464.93 Z10.00 F3000
G1 X404.04 Y462.97 Z10.00 F3000
G1 X411.82 Y460.42 Z10.00 F3000
G1 X419.11 Y457.24 Z10.00 F3000
G1 X422.56 Y455.41 Z10.00 F3000
G1 X425.86 Y453.40 Z10.00 F3000
G1 X429.02 Y451.22 Z10.00 F3000
G1 X432.02 Y448.87 Z10.00 F3000
G1 X434.87 Y446.33 Z10.00 F3000
G1 X437.55 Y443.61 Z10.00 F3000
G1 X448.05 Y432.56 Z10.00 F3000
G1 X458.69 Y421.94 Z10.00 F3000
G1 X499.94 Y382.24 Z10.00 F3000
G1 X509.25 Y372.65 Z10.00 F3000
G1 X517.89 Y363.05 Z10.00 F3000
G1 X525.72 Y353.35 Z10.00 F3000
G1 X529.30 Y348.45 Z10.00 F3000
G1 X532.61 Y343.50 Z10.00 F3000
G1 X535.66 Y338.49 Z10.00 F3000
G1 X538.43 Y333.42 Z10.00 F3000
G1 X540.89 Y328.27 Z10.00 F3000
G1 X543.03 Y323.03 Z10.00 F3000
G1 X544.83 Y317.70 Z10.00 F3000
G1 X546.29 Y312.26 Z10.00 F3000
G1 X547.37 Y306.71 Z10.00 F3000
G1 X548.06 Y301.04 Z10.00 F3000
G1 X548.35 Y295.24 Z10.00 F3000
G1 X548.22 Y289.30 Z10.00 F3000
G1 X547.65 Y283.21 Z10.00 F3000
G1 X546.62 Y276.97 Z10.00 F3000
G1 X541.51 Y252.20 Z10.00 F3000
G1 X536.23 Y229.15 Z10.00 F3000
G1 X533.52 Y218.54 Z10.00 F3000
G1 X530.77 Y208.70 Z10.00 F3000
G1 X527.98 Y199.73 Z10.00 F3000
G1 X525.14 Y191.75 Z10.00 F3000
G1 X522.26 Y184.88 Z10.00 F3000
G1 X519.33 Y179.21 Z10.00 F3000
G1 X517.85 Y176.87 Z10.00 F3000
G1 X516.35 Y174.87 Z10.00 F3000
G1 X514.85 Y173.24 Z10.00 F3000
G1 X513.33 Y171.97 Z10.00 F3000
G1 X511.80 Y171.09 Z10.00 F3000
G1 X510.25 Y170.62 Z10.00 F3000
G1 X508.70 Y170.56 Z10.00 F3000
G1 X507.13 Y170.93 Z10.00 F3000
G1 X505.55 Y171.74 Z10.00 F3000
G1 X503.96 Y173.01 Z10.00 F3000
G1 X502.36 Y174.75 Z10.00 F3000
G1 X500.74 Y176.98 Z10.00 F3000
G1 X494.70 Y186.83 Z10.00 F3000
G1 X489.54 Y196.36 Z10.00 F3000
G1 X485.24 Y205.30 Z10.00 F3000
G1 X481.75 Y213.37 Z10.00 F3000
G1 X479.06 Y220.26 Z10.00 F3000
G1 X475.42 Y231.09 Z10.00 F3000
G1 X471.40 Y239.52 Z10.00 F3000
G1 X467.70 Y246.81 Z10.00 F3000
G0 X467.70 Y246.81 Z30.00 F3000
;FOOTER
; end_gcode
G28 X Y
G0 Z100 				; HOME
G90                             ; absolute positioning
;ENDFOOTER
